{"failedCount":0,"prefixedPath":"src\/test\/resources\/users\/get\/get_user.feature","packageQualifiedName":"src.test.resources.users.get.get_user","loopIndex":-1,"relativePath":"src\/test\/resources\/users\/get\/get_user.feature","scenarioResults":[{"sectionIndex":0,"stepResults":[{"result":{"nanos":87614800,"millis":87.6148,"status":"passed"},"step":{"line":4,"prefix":"Given","index":0,"text":"url \"https:\/\/reqres.in\" + \"\/api\/users\/\" + \"2\""}},{"result":{"nanos":1201406500,"millis":1201.4065,"status":"passed"},"step":{"line":5,"prefix":"When","index":1,"text":"method get"},"stepLog":"12:29:56.007 request:\n1 > GET https:\/\/reqres.in\/api\/users\/2\n1 > Host: reqres.in\n1 > Connection: Keep-Alive\n1 > User-Agent: Apache-HttpClient\/4.5.13 (Java\/11.0.18)\n1 > Accept-Encoding: gzip,deflate\n\n\n12:29:56.710 response time in milliseconds: 701\n1 < 200\n1 < Date: Sun, 21 Jan 2024 17:29:44 GMT\n1 < Content-Type: application\/json; charset=utf-8\n1 < Transfer-Encoding: chunked\n1 < Connection: keep-alive\n1 < Report-To: {\"group\":\"heroku-nel\",\"max_age\":3600,\"endpoints\":[{\"url\":\"https:\/\/nel.heroku.com\/reports?ts=1705529368&sid=c4c9725f-1ab0-44d8-820f-430df2718e11&s=6WTgbZZNe8DHRZS5o%2Fg3B7GlZYfMQrjnTVVeL2GJj%2BA%3D\"}]}\n1 < Reporting-Endpoints: heroku-nel=https:\/\/nel.heroku.com\/reports?ts=1705529368&sid=c4c9725f-1ab0-44d8-820f-430df2718e11&s=6WTgbZZNe8DHRZS5o%2Fg3B7GlZYfMQrjnTVVeL2GJj%2BA%3D\n1 < Nel: {\"report_to\":\"heroku-nel\",\"max_age\":3600,\"success_fraction\":0.005,\"failure_fraction\":0.05,\"response_headers\":[\"Via\"]}\n1 < X-Powered-By: Express\n1 < Access-Control-Allow-Origin: *\n1 < Etag: W\/\"118-pbdwwFo9SKNhD3Lx5iHJyngpq00\"\n1 < Via: 1.1 vegur\n1 < Cache-Control: max-age=14400\n1 < CF-Cache-Status: REVALIDATED\n1 < Vary: Accept-Encoding\n1 < Server: cloudflare\n1 < CF-RAY: 849147f258918dea-MIA\n{\"data\":{\"id\":2,\"email\":\"janet.weaver@reqres.in\",\"first_name\":\"Janet\",\"last_name\":\"Weaver\",\"avatar\":\"https:\/\/reqres.in\/img\/faces\/2-image.jpg\"},\"support\":{\"url\":\"https:\/\/reqres.in\/#support-heading\",\"text\":\"To keep ReqRes free, contributions towards server costs are appreciated!\"}}\n\n"},{"result":{"nanos":21500,"millis":0.0215,"status":"passed"},"step":{"line":6,"prefix":"Then","index":2,"text":"status 200"}}],"executorName":"main","line":3,"name":"Get an user","description":"","durationMillis":1289.0428,"startTime":1705858195431,"failed":false,"refId":"[1:3]","endTime":1705858196733,"exampleIndex":-1},{"sectionIndex":1,"stepResults":[{"result":{"nanos":553500,"millis":0.5535,"status":"passed"},"step":{"line":9,"prefix":"Given","index":0,"text":"url \"https:\/\/reqres.in\/api\/users?page=1\""}},{"result":{"nanos":479440000,"millis":479.44,"status":"passed"},"step":{"line":10,"prefix":"When","index":1,"text":"method get"},"stepLog":"12:29:56.739 request:\n1 > GET https:\/\/reqres.in\/api\/users?page=1\n1 > Host: reqres.in\n1 > Connection: Keep-Alive\n1 > User-Agent: Apache-HttpClient\/4.5.13 (Java\/11.0.18)\n1 > Accept-Encoding: gzip,deflate\n\n\n12:29:57.216 response time in milliseconds: 476\n1 < 200\n1 < Date: Sun, 21 Jan 2024 17:29:44 GMT\n1 < Content-Type: application\/json; charset=utf-8\n1 < Transfer-Encoding: chunked\n1 < Connection: keep-alive\n1 < Report-To: {\"group\":\"heroku-nel\",\"max_age\":3600,\"endpoints\":[{\"url\":\"https:\/\/nel.heroku.com\/reports?ts=1705806018&sid=c4c9725f-1ab0-44d8-820f-430df2718e11&s=qLu3IQnD17T5EkWST21IKRIXrerHBhQDzjxWAMGB14g%3D\"}]}\n1 < Reporting-Endpoints: heroku-nel=https:\/\/nel.heroku.com\/reports?ts=1705806018&sid=c4c9725f-1ab0-44d8-820f-430df2718e11&s=qLu3IQnD17T5EkWST21IKRIXrerHBhQDzjxWAMGB14g%3D\n1 < Nel: {\"report_to\":\"heroku-nel\",\"max_age\":3600,\"success_fraction\":0.005,\"failure_fraction\":0.05,\"response_headers\":[\"Via\"]}\n1 < X-Powered-By: Express\n1 < Access-Control-Allow-Origin: *\n1 < Etag: W\/\"3e4-2RLXvr5wTg9YQ6aH95CkYoFNuO8\"\n1 < Via: 1.1 vegur\n1 < Cache-Control: max-age=14400\n1 < CF-Cache-Status: REVALIDATED\n1 < Vary: Accept-Encoding\n1 < Server: cloudflare\n1 < CF-RAY: 849147f58a6109fa-MIA\n{\"page\":1,\"per_page\":6,\"total\":12,\"total_pages\":2,\"data\":[{\"id\":1,\"email\":\"george.bluth@reqres.in\",\"first_name\":\"George\",\"last_name\":\"Bluth\",\"avatar\":\"https:\/\/reqres.in\/img\/faces\/1-image.jpg\"},{\"id\":2,\"email\":\"janet.weaver@reqres.in\",\"first_name\":\"Janet\",\"last_name\":\"Weaver\",\"avatar\":\"https:\/\/reqres.in\/img\/faces\/2-image.jpg\"},{\"id\":3,\"email\":\"emma.wong@reqres.in\",\"first_name\":\"Emma\",\"last_name\":\"Wong\",\"avatar\":\"https:\/\/reqres.in\/img\/faces\/3-image.jpg\"},{\"id\":4,\"email\":\"eve.holt@reqres.in\",\"first_name\":\"Eve\",\"last_name\":\"Holt\",\"avatar\":\"https:\/\/reqres.in\/img\/faces\/4-image.jpg\"},{\"id\":5,\"email\":\"charles.morris@reqres.in\",\"first_name\":\"Charles\",\"last_name\":\"Morris\",\"avatar\":\"https:\/\/reqres.in\/img\/faces\/5-image.jpg\"},{\"id\":6,\"email\":\"tracey.ramos@reqres.in\",\"first_name\":\"Tracey\",\"last_name\":\"Ramos\",\"avatar\":\"https:\/\/reqres.in\/img\/faces\/6-image.jpg\"}],\"support\":{\"url\":\"https:\/\/reqres.in\/#support-heading\",\"text\":\"To keep ReqRes free, contributions towards server costs are appreciated!\"}}\n\n"},{"result":{"nanos":12700,"millis":0.0127,"status":"passed"},"step":{"line":11,"prefix":"Then","index":2,"text":"status 200"}},{"result":{"nanos":39049900,"millis":39.0499,"status":"passed"},"step":{"line":12,"prefix":"And","index":3,"text":"match $ == { \"page\": 1, \"per_page\": 6, \"total\": 12, \"total_pages\": 2, \"data\": [ { \"id\": 1, \"email\": \"george.bluth@reqres.in\", \"first_name\": \"George\", \"last_name\": \"Bluth\", \"avatar\": \"https:\/\/reqres.in\/img\/faces\/1-image.jpg\" }, { \"id\": 2, \"email\": \"janet.weaver@reqres.in\", \"first_name\": \"Janet\", \"last_name\": \"Weaver\", \"avatar\": \"https:\/\/reqres.in\/img\/faces\/2-image.jpg\" }, { \"id\": 3, \"email\": \"emma.wong@reqres.in\", \"first_name\": \"Emma\", \"last_name\": \"Wong\", \"avatar\": \"https:\/\/reqres.in\/img\/faces\/3-image.jpg\" }, { \"id\": 4, \"email\": \"eve.holt@reqres.in\", \"first_name\": \"Eve\", \"last_name\": \"Holt\", \"avatar\": \"https:\/\/reqres.in\/img\/faces\/4-image.jpg\" }, { \"id\": 5, \"email\": \"charles.morris@reqres.in\", \"first_name\": \"Charles\", \"last_name\": \"Morris\", \"avatar\": \"https:\/\/reqres.in\/img\/faces\/5-image.jpg\" }, { \"id\": 6, \"email\": \"tracey.ramos@reqres.in\", \"first_name\": \"Tracey\", \"last_name\": \"Ramos\", \"avatar\": \"https:\/\/reqres.in\/img\/faces\/6-image.jpg\" } ], \"support\": { \"url\": \"https:\/\/reqres.in\/#support-heading\", \"text\": \"To keep ReqRes free, contributions towards server costs are appreciated!\" } }"}}],"executorName":"main","line":8,"name":"Get an user","description":"","durationMillis":519.0561,"startTime":1705858196737,"failed":false,"refId":"[2:8]","endTime":1705858197257,"exampleIndex":-1}],"callDepth":0,"name":"Get user on regres","description":"","resultDate":"2024-01-21 12:29:57 p. m.","durationMillis":1808.0989,"passedCount":2}