{"failedCount":0,"prefixedPath":"src\/test\/resources\/users\/get\/get_user.feature","packageQualifiedName":"src.test.resources.users.get.get_user","loopIndex":-1,"relativePath":"src\/test\/resources\/users\/get\/get_user.feature","scenarioResults":[{"sectionIndex":1,"stepResults":[{"result":{"nanos":84072100,"millis":84.0721,"status":"passed"},"step":{"line":9,"prefix":"Given","index":0,"text":"url \"https:\/\/reqres.in\/api\/users?page=1\""}},{"result":{"nanos":828559900,"millis":828.5599,"status":"passed"},"step":{"line":10,"prefix":"When","index":1,"text":"method get"},"stepLog":"12:31:32.966 request:\n1 > GET https:\/\/reqres.in\/api\/users?page=1\n1 > Host: reqres.in\n1 > Connection: Keep-Alive\n1 > User-Agent: Apache-HttpClient\/4.5.13 (Java\/11.0.18)\n1 > Accept-Encoding: gzip,deflate\n\n\n12:31:33.330 response time in milliseconds: 362\n1 < 200\n1 < Date: Sun, 21 Jan 2024 17:31:20 GMT\n1 < Content-Type: application\/json; charset=utf-8\n1 < Transfer-Encoding: chunked\n1 < Connection: keep-alive\n1 < Report-To: {\"group\":\"heroku-nel\",\"max_age\":3600,\"endpoints\":[{\"url\":\"https:\/\/nel.heroku.com\/reports?ts=1705806018&sid=c4c9725f-1ab0-44d8-820f-430df2718e11&s=qLu3IQnD17T5EkWST21IKRIXrerHBhQDzjxWAMGB14g%3D\"}]}\n1 < Reporting-Endpoints: heroku-nel=https:\/\/nel.heroku.com\/reports?ts=1705806018&sid=c4c9725f-1ab0-44d8-820f-430df2718e11&s=qLu3IQnD17T5EkWST21IKRIXrerHBhQDzjxWAMGB14g%3D\n1 < Nel: {\"report_to\":\"heroku-nel\",\"max_age\":3600,\"success_fraction\":0.005,\"failure_fraction\":0.05,\"response_headers\":[\"Via\"]}\n1 < X-Powered-By: Express\n1 < Access-Control-Allow-Origin: *\n1 < Etag: W\/\"3e4-2RLXvr5wTg9YQ6aH95CkYoFNuO8\"\n1 < Via: 1.1 vegur\n1 < Cache-Control: max-age=14400\n1 < CF-Cache-Status: HIT\n1 < Age: 96\n1 < Vary: Accept-Encoding\n1 < Server: cloudflare\n1 < CF-RAY: 84914a4faad067e0-MIA\n{\"page\":1,\"per_page\":6,\"total\":12,\"total_pages\":2,\"data\":[{\"id\":1,\"email\":\"george.bluth@reqres.in\",\"first_name\":\"George\",\"last_name\":\"Bluth\",\"avatar\":\"https:\/\/reqres.in\/img\/faces\/1-image.jpg\"},{\"id\":2,\"email\":\"janet.weaver@reqres.in\",\"first_name\":\"Janet\",\"last_name\":\"Weaver\",\"avatar\":\"https:\/\/reqres.in\/img\/faces\/2-image.jpg\"},{\"id\":3,\"email\":\"emma.wong@reqres.in\",\"first_name\":\"Emma\",\"last_name\":\"Wong\",\"avatar\":\"https:\/\/reqres.in\/img\/faces\/3-image.jpg\"},{\"id\":4,\"email\":\"eve.holt@reqres.in\",\"first_name\":\"Eve\",\"last_name\":\"Holt\",\"avatar\":\"https:\/\/reqres.in\/img\/faces\/4-image.jpg\"},{\"id\":5,\"email\":\"charles.morris@reqres.in\",\"first_name\":\"Charles\",\"last_name\":\"Morris\",\"avatar\":\"https:\/\/reqres.in\/img\/faces\/5-image.jpg\"},{\"id\":6,\"email\":\"tracey.ramos@reqres.in\",\"first_name\":\"Tracey\",\"last_name\":\"Ramos\",\"avatar\":\"https:\/\/reqres.in\/img\/faces\/6-image.jpg\"}],\"support\":{\"url\":\"https:\/\/reqres.in\/#support-heading\",\"text\":\"To keep ReqRes free, contributions towards server costs are appreciated!\"}}\n\n"},{"result":{"nanos":22900,"millis":0.0229,"status":"passed"},"step":{"line":11,"prefix":"Then","index":2,"text":"status 200"}},{"result":{"nanos":37298900,"millis":37.2989,"status":"passed"},"step":{"line":12,"prefix":"And","index":3,"text":"match $ == { \"page\": 1, \"per_page\": 6, \"total\": 12, \"total_pages\": 2, \"data\": [ { \"id\": 1, \"email\": \"george.bluth@reqres.in\", \"first_name\": \"George\", \"last_name\": \"Bluth\", \"avatar\": \"https:\/\/reqres.in\/img\/faces\/1-image.jpg\" }, { \"id\": 2, \"email\": \"janet.weaver@reqres.in\", \"first_name\": \"Janet\", \"last_name\": \"Weaver\", \"avatar\": \"https:\/\/reqres.in\/img\/faces\/2-image.jpg\" }, { \"id\": 3, \"email\": \"emma.wong@reqres.in\", \"first_name\": \"Emma\", \"last_name\": \"Wong\", \"avatar\": \"https:\/\/reqres.in\/img\/faces\/3-image.jpg\" }, { \"id\": 4, \"email\": \"eve.holt@reqres.in\", \"first_name\": \"Eve\", \"last_name\": \"Holt\", \"avatar\": \"https:\/\/reqres.in\/img\/faces\/4-image.jpg\" }, { \"id\": 5, \"email\": \"charles.morris@reqres.in\", \"first_name\": \"Charles\", \"last_name\": \"Morris\", \"avatar\": \"https:\/\/reqres.in\/img\/faces\/5-image.jpg\" }, { \"id\": 6, \"email\": \"tracey.ramos@reqres.in\", \"first_name\": \"Tracey\", \"last_name\": \"Ramos\", \"avatar\": \"https:\/\/reqres.in\/img\/faces\/6-image.jpg\" } ], \"support\": { \"url\": \"https:\/\/reqres.in\/#support-heading\", \"text\": \"To keep ReqRes free, contributions towards server costs are appreciated!\" } }"}}],"executorName":"main","line":8,"name":"Get a list of users","description":"","durationMillis":949.9538,"startTime":1705858292430,"failed":false,"refId":"[2:8]","endTime":1705858293393,"exampleIndex":-1}],"callDepth":0,"name":"Get user on regres","description":"","resultDate":"2024-01-21 12:31:33 p. m.","durationMillis":949.9538,"passedCount":1}